<svg width="16" height="8" viewBox="0 0 16 8" fill="none" xmlns="http://www.w3.org/2000/svg">
<path d="M7.99999 7.33334C7.86199 7.33334 7.72466 7.29135 7.60799 7.20601L0.274658 1.87268L1.05932 0.794678L7.99999 5.84268L14.9413 0.794678L15.726 1.87268L8.39266 7.20601C8.27532 7.29135 8.13799 7.33334 7.99999 7.33334Z" fill="#0E2A47"/>
</svg>
